{
  "$schema": "https://themost-framework.github.io/themost/models/2018/2/schema.json",
  "@id": "https://themost.io/schemas/AttachmentType",
  "name": "AttachmentType",
  "title": "AttachmentType",
  "hidden": false,
  "sealed": false,
  "abstract": false,
  "implements": "Enumeration",
  "version": "1.2",
  "fields": [
    {
      "@id": "https://themost.io/schemas/id",
      "name": "id",
      "title": "id",
      "description": "The identifier of the item.",
      "type": "Counter",
      "primary": true
    },
    {
      "@id": "http://schema.org/alternateName",
      "name": "alternateName",
      "title": "alternateName",
      "description": "An alias for the item.",
      "nullable": false,
      "type": "Text"
    },
    {
      "@id": "http://universis.io/schemas/physical",
      "name": "physical",
      "title": "physical",
      "description": "Indicates whether this attachment type refers to a physical document or not e.g. a student identification card",
      "type": "Boolean"
    }
  ],
  "privileges": [
    {
      "mask": 1,
      "type": "global",
      "account": "*"
    },
    {
      "mask": 15,
      "type": "global"
    },
    {
      "mask": 15,
      "type": "global",
      "account": "Administrators"
    }
  ],
  "constraints": [
    {
      "type": "unique",
      "description": "Alternate name must be unique across different records",
      "fields": [
        "alternateName"
      ]
    }
  ]
}
