{
  "$schema": "https://themost-framework.github.io/themost/models/2018/2/schema.json",
  "@id": "https://universis.io/entities/CourseClassStatistic",
  "abstract": false,
  "hidden": false,
  "sealed": false,
  "title": "CourseClassStatistic",
  "version": "1.0",
  "name": "CourseClassStatistic",
  "description": "Contains a collection of extra field required for course class.",
  "fields": [
    {
      "@id": "https://themost.io/schemas/id",
      "name": "id",
      "title": "ID",
      "description": "The identifier of the item.",
      "type": "Counter",
      "primary": true,
      "nullable": false
    },
    {
      "name": "courseClass",
      "@id": "https://universis.io/schemas/CourseClass",
      "title": "Τάξη μαθήματος",
      "type": "CourseClass",
      "editable": false,
      "nullable": false
    },
    {
      "name": "registrationType",
      "title": "Τύπος",
      "description": "Τύπος δήλωσης",
      "type": "RegistrationType",
      "nullable": true,
      "value": "javascript:return 1;"
    },
    {
      "name": "hasRules",
      "title": "Προϋποθέσεις",
      "description": "Έχει προϋποθέσεις (ΝΑΙ/ΟΧΙ)",
      "type": "Boolean",
      "many": false
    },
    {
      "name": "examined",
      "title": "Αριθμός φοιτητών που συμμετείχαν σε εξέταση",
      "description": "Αριθμός φοιτητών που συμμετείχαν σε εξέταση",
      "type": "Integer"
    },
    {
      "name": "passed",
      "title": "Αριθμός φοιτητών που πέρασαν το μάθημα",
      "description": "Αριθμός φοιτητών που πέρασαν το μάθημα",
      "type": "Integer"
    },
    {
      "name": "late",
      "title": "Αριθμός φοιτητών που πέρασαν το μάθημα",
      "description": "Αριθμός φοιτητών που πέρασαν το μάθημα σε επαναληπτική εξέταση",
      "type": "Integer"
    }
  ],
  "constraints": [
    {
      "type": "unique",
      "fields": [
        "courseClass"
      ]
    }
  ],
  "privileges": [
    {
      "mask": 15,
      "type": "global"
    },
    {
      "mask": 16,
      "type": "global"
    },
    {
      "mask": 15,
      "type": "self",
      "account": "Registrar",
      "filter": "courseClass/course/department eq departments()"
    },
    {
      "mask": 31,
      "type": "global",
      "account": "Administrators"
    }
  ]
}
