{
  "$schema": "https://themost-framework.github.io/themost/models/2018/2/schema.json",
  "@id": "https://universis.io/schemas/Department",
  "name": "Department",
  "title": "Department",
  "hidden": false,
  "sealed": false,
  "version": "0.4",
  "caching": "always",
  "classPath": "./models/department-model",
  "source": "DepartmentBase",
  "view": "DepartmentData",
  "fields": [
    {
      "name": "id",
      "title": "Κωδικός",
      "description": "Μοναδικός κωδικός τμήματος",
      "type": "Text",
      "nullable": false,
      "size": 5,
      "primary": true
    },
    {
      "name": "organization",
      "title": "Ίδρυμα",
      "description": "Το ίδρυμα που ανήκει το τμήμα.",
      "type": "Institute",
      "nullable": false,
      "editable": false
    },
    {
      "name": "name",
      "title": "Ονομασία",
      "description": "Η πλήρης ονομασία τμήματος",
      "type": "Text",
      "nullable": true,
      "size": 255
    },
    {
      "name": "abbreviation",
      "title": "Συντομογραφία",
      "description": "Η συντομογραφία του ονόματος του τμήματος",
      "type": "Text",
      "nullable": true,
      "size": 20
    },
    {
      "name": "city",
      "title": "Πόλη",
      "description": "Η όλη που εδρεύει το τμήμα.",
      "type": "Text",
      "nullable": true,
      "size": 30
    },
    {
      "name": "address",
      "title": "Διεύθυνση",
      "description": "Η ταχυδρομική διεύθυνση του τμήματος",
      "type": "Text",
      "nullable": true,
      "size": 80
    },
    {
      "name": "postalCode",
      "title": "Ταχυδρομικός κώδικας",
      "description": "Ο ταχυδρομικός κώδικας",
      "type": "Text",
      "nullable": true,
      "size": 8
    },
    {
      "name": "country",
      "title": "Χώρα",
      "description": "Χώρα",
      "type": "Text",
      "nullable": true,
      "size": 25
    },
    {
      "name": "alternativeCode",
      "title": "Εναλλακτικός κωδικός",
      "description": "Εναλλακτικός κωδικός που μπορεί να συνδέσει το τμήμα με τον αντίστοιχο κωδικό κάποιου άλλου εξωτερικού συστήματος πχ υπουργείο κλπ",
      "type": "Text",
      "nullable": true,
      "size": 15
    },
    {
      "name": "currentYear",
      "title": "Τρέχον ακαδημαϊκό έτος",
      "description": "Το τρέχον ακαδημαϊκό έτος του τμήματος",
      "type": "AcademicYear",
      "expandable": true
    },
    {
      "name": "currentPeriod",
      "title": "Τρέχουσα ακαδημαϊκή περίοδος",
      "description": "Τρέχουσα ακαδημαϊκή περίοδος",
      "expandable": true,
      "type": "AcademicPeriod"
    },
    {
      "name": "facultyName",
      "title": "Ονομασία σχολής",
      "description": "Η ονομασία της σχολής εφόσον το τμήμα ανήκει σε σχολή.",
      "type": "Text",
      "nullable": true,
      "size": 150
    },
    {
      "name": "facultyName2",
      "title": "Εναλλακτική ονομασία σχολής",
      "description": "Μια δεύτερη ονομασία σχολής πχ η γενική της ονομασίας για χρήση σε reports.",
      "type": "Text",
      "nullable": true
    },
    {
      "name": "departmentName2",
      "title": "Εναλλακτική ονομασία τμήματος",
      "description": "Μια δεύτερη ονομασία του τμήματος πχ η γενική της ονομασίας κυρίως για χρήση σε reports.",
      "type": "Text",
      "nullable": true
    },
    {
      "name": "name2",
      "title": "Άλλη ονομασία τμήματος",
      "description": "Μια άλλη ονομασία του τμήματος πχ η παλιότερη ονομασία του τμήματος κυρίως για χρήση σε reports.",
      "type": "Text",
      "nullable": true
    },
    {
      "name": "phone1",
      "title": "Τηλέφωνο 1",
      "description": "Τηλέφωνο επικοινωνίας 1",
      "type": "Text",
      "nullable": true,
      "size": 15
    },
    {
      "name": "phone2",
      "title": "Τηλέφωνο 2",
      "description": "Τηλέφωνο επικοινωνίας 2",
      "type": "Text",
      "nullable": true,
      "size": 15
    },
    {
      "name": "studyLevel",
      "title": "Επίπεδο σπουδών",
      "description": "Το επίπεδο σπουδών των προγραμμάτων σπουδών που προσφέρονται από το τμήμα. (πχ προπτυχιακό, μεταπτυχιακό, διδακτορικό).",
      "type": "StudyLevel",
      "expandable": true,
      "nullable": true,
      "mapping": {
        "parentModel": "StudyLevel",
        "childModel": "Department",
        "parentField": "identifier",
        "childField": "studyLevel",
        "associationType": "association"
      }
    },
    {
      "name": "contactPerson1",
      "title": "Όνομα υπεύθυνου 1",
      "description": "Όνομα υπεύθυνου επικοινωνίας 1",
      "type": "Text",
      "nullable": true,
      "size": 60
    },
    {
      "name": "contactPerson2",
      "title": "Όνομα υπεύθυνου 2",
      "description": "Όνομα υπεύθυνου επικοινωνίας 2",
      "type": "Text",
      "nullable": true,
      "size": 60
    },
    {
      "name": "email",
      "title": "Διεύθυνση ηλεκτρονικού ταχυδρομείου",
      "description": "Η διεύθυνση ηλεκτρονικού ταχυδρομείου του τμήματος.",
      "type": "Text",
      "nullable": true,
      "size": 50
    },
    {
      "name": "totalSemesters",
      "title": "Αριθμός εξαμήνων",
      "description": "Ο τυπικός αριθμός εξαμήνων που διαρκεί ένα πρόγραμμα σπουδών του τμήματος",
      "type": "Text",
      "nullable": true,
      "size": 2
    },
    {
      "name": "url",
      "title": "Ηλεκτρονική διεύθυνση",
      "description": "Η ηλεκτρονική διεύθυνση",
      "type": "Text",
      "nullable": true,
      "size": 255
    },
    {
      "name": "localDepartment",
      "title": "Τοπικό",
      "description": "Αν είναι τοπικό τμήμα ή δεν ανήκει στο Ίδρυμα.",
      "type": "Boolean",
      "calculation": "javascript:return this.convertStrictBoolean(this.target,'localDepartment');"
    },
    {
      "name": "notes",
      "title": "Σημειώσεις",
      "description": "Σημειώσεις",
      "many": false,
      "type": "Note"
     },
    {
      "name": "dateModified",
      "title": "Ημερομηνία τελευταίας τροποποίησης",
      "description": "Ημερομηνία τελευταίας τροποποίησης",
      "type": "DateTime",
      "nullable": false,
      "value": "javascript:return new Date();",
      "calculation": "javascript:return this.now();"
    },
    {
      "@id": "https://universis.io/properties/departmentConfiguration",
      "name": "departmentConfiguration",
      "title": "departmentConfiguration",
      "type": "DepartmentConfiguration",
      "expandable": true,
      "nested": true,
      "mapping": {
        "parentModel": "Department",
        "parentField": "id",
        "childModel": "DepartmentConfiguration",
        "childField": "department",
        "associationType": "association",
        "cascade": "delete",
        "privileges": [
          {
            "mask": 1,
            "type": "global",
            "account": "*"
          }
          ]
      }
    },
    {
      "name": "locales",
      "type": "DepartmentLocale",
      "mapping": {
        "associationType": "association",
        "cascade": "delete",
        "parentModel": "Department",
        "parentField": "id",
        "childModel": "DepartmentLocale",
        "childField": "object"
      }
    },
    {
      "name": "locale",
      "type": "DepartmentLocale",
      "readonly": true,
      "editable": false,
      "many": true,
      "expandable": true,
      "multiplicity": "ZeroOrOne",
      "mapping": {
        "associationType": "association",
        "cascade": "delete",
        "parentModel": "Department",
        "parentField": "id",
        "childModel": "DepartmentLocale",
        "childField": "object",
        "options": {
          "$filter": "inLanguage eq lang()",
          "$first": true
        }
      }
    }
  ],
  "views": [
    {
      "name": "Local",
      "filter": "localDepartment eq true"
    }
  ],
  "privileges": [
    {
      "mask": 1,
      "type": "global",
      "account": "*"
    },
    {
      "mask": 15,
      "type": "global"
    },
    {
      "mask": 16,
      "type": "global"
    },
    {
      "mask": 31,
      "type": "global",
      "account": "Administrators"
    },
    {
      "mask": 21,
      "type": "self",
      "account": "Registrar",
      "filter": "id eq departments()"
    }
  ],
  "eventListeners": [
    {
      "name": "Lookup Cache Listener",
      "type": "./listeners/noop-listener.js"
    },
    {
      "type": "./listeners/data-localization"
    }
  ]
}
