{
    "$schema": "https://themost-framework.github.io/themost/models/2018/2/schema.json",
    "@id": "http://schema.org/GraduationRuleValidateAction",
    "name": "GraduationRuleValidateAction",
    "description": "The act of organizing tasks/objects/events by associating resources to it.",
    "title": "GraduationRuleValidateAction",
    "abstract": false,
    "sealed": false,
    "inherits": "ValidateAction",
    "version": "1.1",
    "fields": [
        {
            "name": "department",
            "title": "Department",
            "type": "Department",
            "nullable": false,
            "editable": false
        },
        {
            "name": "totalStudents",
            "title": "Σύνολο φοιτητών",
            "description": "Ο αριθμός των φοιτητών που θα ελεγχθεί",
            "type": "Integer"
        },
        {
            "name": "results",
            "description": "A collection of results associated with this validate action.",
            "type": "GraduationRuleValidateResult",
            "many": true,
            "mapping": {
                "parentModel": "GraduationRuleValidateAction",
                "childModel": "GraduationRuleValidateResult",
                "parentField": "id",
                "childField": "action",
                "cascade": "none",
                "associationType": "association"
            }
        }
    ],
    "privileges": [
        {
            "mask": 15,
            "type": "global"
        },
        {
            "mask": 15,
            "type": "global",
            "account": "Administrators"
        },
        {
            "mask": 15,
            "type": "self",
            "account": "Registrar",
            "filter": "department eq departments()"
        }
    ]
}
