{
  "$schema": "https://themost-framework.github.io/themost/models/2018/2/schema.json",
  "@id": "https://themost.io/schemas/InstructorRole",
  "name": "InstructorRole",
  "title": "Instructor role",
  "hidden": false,
  "sealed": false,
  "abstract": false,
  "implements": "Enumeration",
  "version": "1.0",
  "fields": [
    {
      "@id": "https://themost.io/schemas/id",
      "name": "id",
      "title": "id",
      "description": "The identifier of the item.",
      "type": "Counter",
      "primary": true
    },
    {
      "@id": "http://schema.org/alternateName",
      "name": "alternateName",
      "title": "alternateName",
      "description": "An alias for the item.",
      "nullable": false,
      "type": "Text"
    }
  ],
  "privileges": [
    {
      "mask": 1,
      "type": "global",
      "account": "*"
    },
    {
      "mask": 15,
      "type": "global"
    },
    {
      "mask": 15,
      "type": "global",
      "account": "Administrators"
    }
  ],
  "seed": [
    {
      "alternateName": "supervisor",
      "name": "Υπεύθυνος μαθήματος"
    },
    {
      "alternateName": "co-teacher",
      "name": "Συνδιδάσκοντας"
    },
    {
      "alternateName": "assistant",
      "name": "Διδακτική υποστήριξη"
    }
  ],
  "constraints": [
    {
      "type": "unique",
      "description": "Alternate name must be unique across different records",
      "fields": [
        "alternateName"
      ]
    }
  ]
}
