{
  "$schema": "https://themost-framework.github.io/themost/models/2018/2/schema.json",
  "@id": "https://universis.io/schemas/Permission",
  "name": "Permission",
  "title": "Permission",
  "hidden": true,
  "caching": "always",
  "sealed": false,
  "abstract": false,
  "version": "1.1",
  "fields": [
    {
      "name": "id",
      "title": "Id",
      "description": "The identifier of this item.",
      "type": "Counter",
      "nullable": false,
      "primary": true
    },
    {
      "name": "privilege",
      "title": "Scope",
      "description": "The privilege where this permission refers",
      "type": "Text",
      "size": 80,
      "nullable": false
    },
    {
      "name": "parentPrivilege",
      "title": "Scope",
      "description": "The parent privilege of this permission, if any",
      "type": "Text",
      "size": 80,
      "nullable": true
    },
    {
      "name": "workspace",
      "title": "Workspace",
      "description": "The workspace where this permission belongs",
      "type": "Integer",
      "nullable": false,
      "value": "javascript:return 1;"
    },
    {
      "name": "account",
      "title": "Account",
      "description": "The account which is related with this permission.",
      "type": "Account",
      "nullable": false
    },
    {
      "name": "target",
      "title": "Target object",
      "description": "The target object.",
      "type": "Text",
      "size": 128,
      "nullable": true,
      "value": "javascript:return '0';"
    },
    {
      "name": "mask",
      "title": "Mask",
      "description": "The permission mask.",
      "type": "Integer",
      "nullable": false
    }
  ],
  "constraints": [
    {
      "description": "An object permission must be unique.",
      "type": "unique",
      "fields": [
        "privilege",
        "parentPrivilege",
        "workspace",
        "account",
        "target"
      ]
    }
  ],
  "privileges": [
    {
      "mask": 15,
      "type": "global"
    }
  ]
}