{
    "$schema": "https://themost-framework.github.io/themost/models/2018/2/schema.json",
    "@id": "https://universis.io/schemas/ReportCategory",
    "name": "ReportCategory",
    "title": "Report Categories",
    "hidden": false,
    "sealed": false,
    "abstract": false,
    "version": "1.5",
    "implements": "Enumeration",
    "fields": [
        {
            "@id": "https://themost.io/schemas/id",
            "name": "id",
            "title": "id",
            "description": "The identifier of the item.",
            "type": "Counter",
            "primary": true
        },
        {
            "@id": "https://themost.io/appliesTo",
            "name": "appliesTo",
            "title": "Applies To",
            "description": "A string which represents the data model where this report category refers to.",
            "type": "Text"
        },
        {
            "name": "about",
            "title": "About",
            "description": "An identifier regarding the category type",
            "type": "Text"
        }
    ],
    "privileges": [
        {
            "mask": 15,
            "type": "global"
        },
        {
            "mask": 15,
            "type": "global",
            "account": "Administrators"
        },
        {
            "mask": 15,
            "type": "global",
            "account": "Registrar"
        },
        {
            "mask": 15,
            "type": "item"
        }
    ],
    "eventListeners": [
    ]
}
