{
  "$schema": "https://themost-framework.github.io/themost/models/2018/2/schema.json",
  "@id": "https://universis.io/schemas/StudentCounselor",
  "name": "StudentCounselor",
  "title": "Ακαδημαϊκός σύμβουλος",
  "version": "1.0",
  "fields": [
    {
      "name": "id",
      "title": "Id",
      "type": "Counter",
      "nullable": false,
      "primary": true
    },
    {
      "name": "student",
      "title": "Φοιτητής",
      "description": "Φοιτητής",
      "type": "Student",
      "nullable": false
    },
    {
      "name": "instructor",
      "title": "Ακαδημαϊκός σύμβουλος",
      "description": "Ακαδημαϊκός σύμβουλος",
      "type": "Instructor",
      "nullable": false
    },
    {
      "name": "fromYear",
      "title": "Ακαδημαϊκό έτος έναρξης",
      "description": "Το ακαδημαϊκό έτος έναρξης της συμβουλευτικής.",
      "type": "AcademicYear",
      "expandable": true,
      "nullable": false
    },
    {
      "name": "fromPeriod",
      "title": "Ακαδημαϊκή περίοδος έναρξης",
      "description": "Η ακαδημαϊκή περίοδος έναρξης της πρακτικής άσκησης.",
      "type": "AcademicPeriod",
      "expandable": true,
      "nullable": false
    },
    {
      "name": "toYear",
      "title": "Ακαδημαϊκό έτος λήξης",
      "description": "Το ακαδημαϊκό έτος λήξης της συμβουλευτικής.",
      "type": "AcademicYear",
      "expandable": true,
      "nullable": true
    },
    {
      "name": "toPeriod",
      "title": "Ακαδημαϊκή περίοδος λήξης",
      "description": "Η ακαδημαϊκή περίοδος λήξης της πρακτικής άσκησης.",
      "type": "AcademicPeriod",
      "expandable": true
    },
    {
      "name": "startDate",
      "title": "Ημερομηνία έναρξης",
      "description": "Η ημερομηνία έναρξης",
      "type": "DateTime",
      "nullable": true

    },
    {
      "name": "endDate",
      "title": "Ημερομηνία λήξης",
      "description": "Η ημερομηνία λήξης",
      "type": "DateTime",
      "nullable": true,
      "size": 4
    },
    {
      "@id": "https://themost.io/schemas/active",
      "name": "active",
      "title": "Active",
      "description": "Indicates whether the item is active or not.",
      "type": "Boolean",
      "nullable": false,
      "value": "javascript:return true;"
    },
    {
      "name": "notes",
      "title": "Σημειώσεις",
      "description": "Σημειώσεις",
      "type": "Text",
      "nullable": true,
      "size": 1024,
      "many": false
    },
    {
      "@id": "https://themost.io/schemas/dateCreated",
      "name": "dateCreated",
      "title": "dateCreated",
      "description": "The date on which this item was created.",
      "type": "DateTime",
      "readonly": true,
      "value": "javascript:return new Date();"
    },
    {
      "@id": "https://themost.io/schemas/dateModified",
      "name": "dateModified",
      "title": "dateModified",
      "description": "The date on which this item was most recently modified.",
      "type": "DateTime",
      "readonly": true,
      "value": "javascript:return (new Date());",
      "calculation": "javascript:return (new Date());"
    },
    {
      "@id": "https://themost.io/schemas/createdBy",
      "name": "createdBy",
      "title": "createdBy",
      "description": "Created by user.",
      "type": "User",
      "readonly": true,
      "value": "javascript:return this.user();"
    },
    {
      "@id": "https://themost.io/schemas/modifiedBy",
      "name": "modifiedBy",
      "title": "modifiedBy",
      "description": "Last modified by user.",
      "type": "User",
      "readonly": true,
      "value": "javascript:return this.user();",
      "calculation": "javascript:return this.user();"
    }
  ],
  "views": [
    {
      "name": "InstructorStudentCounselor",
      "fields": [
        {
          "name": "id"
        },
        {
          "name": "student",
          "mapping": {
            "options": {
              "$select": "StudentSummary"
            }
          }
        },
        {
          "name": "instructor"
        },
        {
          "name": "fromYear"
        },
        {
          "name": "fromPeriod"
        },
        {
          "name": "toYear"
        },
        {
          "name": "toPeriod"
        },
        {
          "name": "startDate"
        },
        {
          "name": "endDate"
        },
        {
          "name": "active"
        },
        {
          "name": "notes"
        },
        {
          "name": "dateCreated"
        },
        {
          "name": "dateModified"
        },
        {
          "name": "createdBy"
        },
        {
          "name": "modifiedBy"
        }
      ],
      "privileges": [
        {
          "mask": 1,
          "type": "self",
          "filter": "instructor eq instructor()",
          "account": "Instructors"
        }
      ]
    }
  ],
  "privileges": [
    {
      "mask": 15,
      "type": "global"
    },
    {
      "mask": 1,
      "type": "self",
      "filter": "student eq student()",
      "account": "Students"
    },
    {
      "mask": 1,
      "type": "self",
      "filter": "instructor eq instructor()",
      "account": "Instructors"
    },
    {
      "mask": 15,
      "type": "global",
      "account": "Administrators"
    },
    {
      "mask": 15,
      "type": "self",
      "account": "Registrar",
      "filter": "student/department eq departments()"
    }
  ]
}
