{
  "$schema": "https://themost-framework.github.io/themost/models/2018/2/schema.json",
  "@id": "https://universis.io/schemas/StudentGraduateAction",
  "name": "StudentGraduateAction",
  "title": "StudentGraduateAction",
  "hidden": false,
  "sealed": false,
  "version": "1.3",
  "inherits": "UpdateAction",
  "fields": [
    {
      "@id": "http://schema.org/object",
      "name": "object",
      "title": "Student",
      "description": "A student associated with declare action",
      "type": "Student",
      "nullable": false,
      "expandable": true,
      "editable": false,
      "value": "javascript:return this.student();"
    },
    {
      "@id": "http://schema.org/actionStatus",
      "name": "actionStatus",
      "title": "actionStatus",
      "description": "Indicates the current disposition of the Action.",
      "type": "ActionStatusType",
      "value": "javascript:return { alternateName:'ActiveActionStatus' };",
      "expandable": true
    },
    {
      "name": "graduationPeriod",
      "title": "Περίοδος ορκωμοσίας",
      "description": "Περίοδος ορκωμοσίας",
      "type": "AcademicPeriod",
      "nullable": true,
      "expandable": true
    },
    {
      "name": "graduationYear",
      "title": "Ακαδημαϊκό έτος ορκωμοσίας",
      "description": "Ακαδημαϊκό έτος ορκωμοσίας",
      "type": "AcademicYear",
      "expandable": true
    },
    {
      "name": "graduationGrade",
      "title": "Βαθμός πτυχίου (0-1)",
      "description": "Βαθμός πτυχίου (0-1)",
      "type": "Number",
      "nullable": true,
      "size": 8
    },
    {
      "name": "graduationTitle",
      "title": "Τίτλος πτυχίου",
      "description": "Τίτλος πτυχίου",
      "type": "Text",
      "nullable": true,
      "size": 150
    },
    {
      "name": "graduationGradeWrittenInWords",
      "title": "Βαθμός πτυχίου ολογράφως",
      "description": "Βαθμός πτυχίου ολογράφως",
      "type": "Text",
      "nullable": true,
      "size": 50
    },
    {
      "name": "graduationNumber",
      "title": "Αριθμός πτυχίου",
      "description": "Αριθμός πτυχίου",
      "type": "Text",
      "nullable": true,
      "size": 20
    },
    {
      "name": "graduationGradeScale",
      "title": "Κλίμακα βαθμού πτυχίου",
      "description": "Κλίμακα βαθμού πτυχίου",
      "type": "GradeScale",
      "nullable": true
    },
    {
      "name": "graduationGradeAdjusted",
      "title": "Βαθμός πτυχίου (ανηγμένος στην κλίμακα)",
      "description": "Βαθμός πτυχίου (ανηγμένος στην κλίμακα)",
      "type": "Text",
      "nullable": true,
      "size": 15
    },
    {
      "name": "lastObligationDate",
      "title": "Ημερομηνία τελευταίας υποχρέωσης",
      "description": "Ημερομηνία τελευταίας υποχρέωσης",
      "type": "DateTime",
      "nullable": true,
      "size": 4
    },
    {
      "name": "graduationType",
      "title": "Τύπος ορκωμοσίας (Ορκωμοσία/Διαβεβαίωση)",
      "description": "Τύπος ορκωμοσίας (Ορκωμοσία/Διαβεβαίωση)",
      "type": "Text",
      "size": 2
    },
    {
      "name": "graduationDate",
      "title": "Ημερομηνία ορκωμοσίας",
      "description": "Ημερομηνία ορκωμοσίας",
      "type": "DateTime",
      "nullable": true,
      "size": 4
    },
    {
      "name": "declaredDate",
      "title": "Ημερομηνία ανακήρυξης",
      "description": "Ημερομηνία ανακήρυξης",
      "type": "DateTime",
      "nullable": true
    }
  ],
  "eventListeners": [
    {
      "type": "@themost/data/previous-state-listener"
    },
    {
      "type": "./listeners/complete-student-graduate-listener"
    }
  ],
  "privileges": [
    {
      "mask": 15,
      "type": "global"
    },
    {
      "mask": 15,
      "type": "global",
      "account": "Administrators",
      "description": "Administrators have full-access to all entities."
    },
    {
      "mask": 7,
      "type": "self",
      "account": "Registrar",
      "description": "A registrar user has access to read, write or update items which associated with students of its own departments.",
      "filter": "object/department eq departments()"
    },
    {
      "mask": 1,
      "type": "self",
      "account": "Students",
      "description": "A student has access to read items which associated with its record and their action status is other than active e.g. completed, cancelled etc",
      "filter": "object eq student() and actionStatus/alternateName ne 'ActiveActionStatus'"
    }
  ]
}
