{
  "$schema": "https://themost-framework.github.io/themost/models/2018/2/schema.json",
  "@id": "https://universis.io/schemas/StudentGradeActionTrace",
  "name": "StudentGradeActionTrace",
  "title": "StudentGradeActionTraces",
  "hidden": false,
  "version": "2.0",
  "implements": "Thing",
  "fields": [
    {
      "name": "id",
      "title": "Κωδικός",
      "description": "Μοναδικός κωδικός εγγραφής",
      "type": "Integer",
      "nullable": false,
      "primary": true,
      "value": "javascript:return this.newid();",
      "readonly": true
    },
    {
      "@id": "http://schema.org/additionalType",
      "name": "additionalType",
      "readonly": true,
      "nullable": false,
      "value": "javascript:return this.model.name;",
      "type": "Text"
    },
    {
      "name": "action",
      "title": "Action",
      "description": "The action associated with this trace.",
      "type": "Action"
    },
    {
      "name": "course",
      "title": "Course",
      "description": "Course",
      "type": "Course",
      "nullable": false,
      "editable": false
    },
    {
      "name": "student",
      "title": "Student",
      "description": "Student",
      "type": "Student",
      "nullable": false,
      "editable": false
    },
    {
      "name": "courseExam",
      "title": "Course Exam",
      "description": "Course Exam",
      "type": "CourseExam",
      "nullable": false,
      "editable": false
    },
    {
      "name": "studentIdentifier",
      "title": "Student identifier",
      "description": "Student identifier",
      "type": "Text",
      "size": 40,
      "nullable": false
    },
    {
      "name": "semester",
      "title": "Semester",
      "description": "Current student semester",
      "type": "Integer",
      "nullable": false
    },
    {
      "name": "familyName",
      "title": "Family name",
      "description": "Student family name",
      "type": "Text",
      "nullable": false,
      "size": 60
    },
    {
      "name": "givenName",
      "title": "Given name",
      "description": "Student given name",
      "type": "Text",
      "nullable": false,
      "size": 60
    },
    {
      "name": "examGrade",
      "title": "examGrade",
      "description": "examGrade",
      "type": "Number",
      "nullable": true,
      "size": 4
    },
    {
      "name": "formattedGrade",
      "title": "examGrade (grade scale)",
      "description": "Exam grade (grade scale)",
      "type": "Text",
      "size": 20
    },
    {
      "name": "previousGrade",
      "title": "Previous grade",
      "description": "Previous grade if exists",
      "type": "Number",
      "nullable": true
    },
    {
      "name": "previousFormattedGrade",
      "title": "Previous grade (grade scale)",
      "description": "Previous grade (grade scale)",
      "type": "Text",
      "size": 20
    },
    {
      "name": "status",
      "title": "status",
      "description": "Grade status",
      "type": "GradeStatus",
      "nullable": false,
      "mapping": {
        "parentModel": "GradeStatus",
        "childModel": "StudentGradeActionTrace",
        "parentField": "identifier",
        "childField": "status",
        "associationType": "association"
      }
    }
  ],
  "privileges": [
    {
      "mask": 1,
      "type": "global",
      "account": "Administrators"
    },
    {
      "mask": 15,
      "type": "global"
    },
    {
      "mask": 3,
      "type": "self",
      "filter": "courseExam/instructors/instructor eq instructor()",
      "account": "Instructors"
    },
    {
      "mask": 15,
      "type": "self",
      "account": "Registrar",
      "filter": "student/department eq departments() or courseExam/course/department eq departments()"
    }
  ]
}
