{
  "$schema": "https://themost-framework.github.io/themost/models/2018/2/schema.json",
  "@id": "https://themost.io/schemas/TeachingEventCourseClassSections",
  "name": "TeachingEventCourseClassSections",
  "title": "Teaching Event Course Class Sections",
  "source": "TeachingEventCourseClassSections",
  "view": "TeachingEventCourseClassSections",
  "version": "0.2",
  "hidden": true,
  "fields": [
    {
      "name": "id",
      "type": "Counter",
      "primary": true
    },
    {
      "name": "parentId",
      "nullable": false,
      "type": "TeachingEvent"
    },
    {
      "name": "valueId",
      "nullable": false,
      "type": "Guid"
    }
  ],
  "constraints": [
    {
      "type": "unique",
      "fields": [
        "parentId",
        "valueId"
      ]
    }
  ],
  "privileges": [
    {
      "mask": 1,
      "type": "global",
      "account": "Students"
    },
    {
      "mask": 3,
      "type": "global",
      "account": "Instructors"
    },
    {
      "mask": 15,
      "type": "global",
      "account": "Administrators"
    },
    {
      "mask": 15,
      "type": "global",
      "account": "Registrar"
    }
  ]
}
